{
  "service": "tmdb",
  "endpoint": "popular-movies",
  "timestamp": "2025-10-06T11:28:43.203Z",
  "responseExample": {
    "page": 1,
    "total_pages": 100,
    "total_results": 2000,
    "results": [
      {
        "id": 12345,
        "title": "Popular Movie 1",
        "release_date": "2023-01-01",
        "poster_path": "/poster1.jpg",
        "overview": "Test movie description",
        "vote_average": 8.5
      }
    ]
  },
  "requiredFields": [
    "page",
    "total_pages",
    "total_results",
    "results"
  ],
  "fieldTypes": {
    "page": "number",
    "total_pages": "number",
    "total_results": "number",
    "results": "array"
  }
}